04_describe
…
phenotypes |> select(year_of_diagnosis.diagnoses)

# A tibble: 1,255 × 1
   year_of_diagnosis.diagnoses
                         <dbl>
 1                        2010
 2                        2006
 3                        2011
 4                        2011
 5                        2011
 6                        2010
 7                        2010
 8                        2010
 9                        2010
10                        2010
# ℹ 1,245 more rows
…
